<define-tag pagetitle>DLA-1267-1 squid</define-tag>
<define-tag report_date>2018-2-2</define-tag>
<define-tag secrefs>CVE-2018-1000027 Bug#888720</define-tag>
<define-tag packages>squid</define-tag>
<define-tag isvulnerable>yes</define-tag>
<define-tag fixed>yes</define-tag>
<define-tag fixed-section>no</define-tag>

#use wml::debian::security

