<define-tag pagetitle>DLA-1444-1 vim-syntastic</define-tag>
<define-tag report_date>2018-7-26</define-tag>
<define-tag secrefs>CVE-2018-11319</define-tag>
<define-tag packages>vim-syntastic</define-tag>
<define-tag isvulnerable>yes</define-tag>
<define-tag fixed>yes</define-tag>
<define-tag fixed-section>no</define-tag>

#use wml::debian::security

