<define-tag pagetitle>DLA-1900-2 apache2</define-tag>
<define-tag report_date>2019-9-30</define-tag>
<define-tag secrefs>CVE-2019-10092 Bug#941202</define-tag>
<define-tag packages>apache2</define-tag>
<define-tag isvulnerable>yes</define-tag>
<define-tag fixed>yes</define-tag>
<define-tag fixed-section>no</define-tag>

#use wml::debian::security

