<define-tag pagetitle>DLA-1933-1 ruby-nokogiri</define-tag>
<define-tag report_date>2019-09-26</define-tag>
<define-tag secrefs>CVE-2019-5477</define-tag>
<define-tag packages>ruby-nokogiri</define-tag>
<define-tag isvulnerable>yes</define-tag>
<define-tag fixed>yes</define-tag>
<define-tag fixed-section>no</define-tag>

#use wml::debian::security

